<?xml version="1.0" encoding="utf-8"?>
<!-- Generator: Adobe Illustrator 19.2.1, SVG Export Plug-In . SVG Version: 6.00 Build 0)  -->
<svg version="1.1" id="Livello_1" xmlns="http://www.w3.org/2000/svg" xmlns:xlink="http://www.w3.org/1999/xlink" x="0px" y="0px"
	 viewBox="0 0 16 16" style="enable-background:new 0 0 16 16;" xml:space="preserve">
<style type="text/css">
	.st0{fill:none;}
	.st1{fill:#FFFFFF;}
</style>
<title>verified</title>
<g>
	<path class="st0" d="M0,0h16v16H0V0z"/>
	<rect x="0.7" y="6.7" class="st1" width="2.7" height="8"/>
	<path class="st1" d="M15.3,7.3C15.3,6.6,14.7,6,14,6H9.8l0.6-3l0-0.2c0-0.3-0.1-0.5-0.3-0.7L9.4,1.3L5.1,5.7C4.8,6,4.7,6.3,4.7,6.7
		v6.7c0,0.7,0.6,1.3,1.3,1.3h6c0.5,0,1-0.3,1.2-0.8l2-4.7c0.1-0.2,0.1-0.3,0.1-0.5L15.3,7.3L15.3,7.3L15.3,7.3z"/>
</g>
</svg>
